Easily Tidy Gapminder Datasets • tidygapminder
…
# install.packages("devtools")
devtools::install_github("ebedthan/tidygapminder")

Example

This is a basic example which shows you how to solve a common problem:

library(tidygapminder)

# From ----------------------------------
df <- readxl::read_xlsx(system.file("extdata", "agriculture_land.xlsx", package = "tidygapminder"))

df
#> # A tibble: 213 x 53
#>    `Agricultural l… `1960` `1961` `1962` `1963` `1964` `1965`
#>    <chr>            <lgl>   <dbl>  <dbl>  <dbl>  <dbl>  <dbl>
#>  1 Afghanistan      NA       57.8   57.9   58.0   58.1   58.1
#>  2 Albania          NA       45.0   45.0   45     44.9   45.1
#>  3 Algeria          NA       19.1   18.9   18.7   18.5   18.5
#>  4 American Samoa   NA       20     20     20     20     20  
#>  5 Andorra          NA       55.3   55.3   55.3   55.3   55.3
#>  6 Angola           NA       45.9   45.9   45.9   45.9   45.9
#>  7 Antigua and Bar… NA       22.7   20.5   22.7   20.5   25  
#>  8 Argentina        NA       50.4   49.9   49.3   48.7   48.2
#>  9 Armenia          NA       NA     NA     NA     NA     NA  
#> 10 Aruba            NA       11.1   11.1   11.1   11.1   11.1
#> # … with 203 more rows, and 46 more variables: `1966` <dbl>,
#> #   `1967` <dbl>, `1968` <dbl>, `1969` <dbl>, `1970` <dbl>,
#> #   `1971` <dbl>, `1972` <dbl>, `1973` <dbl>, `1974` <dbl>,
#> #   `1975` <dbl>, `1976` <dbl>, `1977` <dbl>, `1978` <dbl>,
#> #   `1979` <dbl>, `1980` <dbl>, `1981` <dbl>, `1982` <dbl>,
#> #   `1983` <dbl>, `1984` <dbl>, `1985` <dbl>, `1986` <dbl>,
#> #   `1987` <dbl>, `1988` <dbl>, `1989` <dbl>, `1990` <dbl>,
#> #   `1991` <dbl>, `1992` <dbl>, `1993` <dbl>, `1994` <dbl>,
#> #   `1995` <dbl>, `1996` <dbl>, `1997` <dbl>, `1998` <dbl>,
#> #   `1999` <dbl>, `2000` <dbl>, `2001` <dbl>, `2002` <dbl>,
#> #   `2003` <dbl>, `2004` <dbl>, `2005` <dbl>, `2006` <dbl>,
#> #   `2007` <dbl>, `2008` <dbl>, `2009` <dbl>, `2010` <lgl>,
#> #   `2011` <lgl>

# To ------------------------------------
file <- system.file("extdata", "agriculture_land.xlsx", package = "tidygapminder")

tidy_indice(file)
#> # A tibble: 11,076 x 3
#>    country      year `Agricultural land (% of land area)`
#>    <chr>       <dbl>                                <dbl>
#>  1 Afghanistan  1960                                 NA  
#>  2 Afghanistan  1961                                 57.8
#>  3 Afghanistan  1962                                 57.9
#>  4 Afghanistan  1963                                 58.0
#>  5 Afghanistan  1964                                 58.1
#>  6 Afghanistan  1965                                 58.1
#>  7 Afghanistan  1966                                 58.1
#>  8 Afghanistan  1967                                 58.2
#>  9 Afghanistan  1968                                 58.2
#> 10 Afghanistan  1969                                 58.3
#> # … with 11,066 more rows

Or more powerful:

# From ----------------------------------------

path <- system.file("extdata", package = "tidygapminder")

list.files(path)
#> [1] "agriculture_land.xlsx"     "life_expectancy_years.csv"

df
#> # A tibble: 213 x 53
#>    `Agricultural l… `1960` `1961` `1962` `1963` `1964` `1965`
#>    <chr>            <lgl>   <dbl>  <dbl>  <dbl>  <dbl>  <dbl>
#>  1 Afghanistan      NA       57.8   57.9   58.0   58.1   58.1
#>  2 Albania          NA       45.0   45.0   45     44.9   45.1
#>  3 Algeria          NA       19.1   18.9   18.7   18.5   18.5
#>  4 American Samoa   NA       20     20     20     20     20  
#>  5 Andorra          NA       55.3   55.3   55.3   55.3   55.3
#>  6 Angola           NA       45.9   45.9   45.9   45.9   45.9
#>  7 Antigua and Bar… NA       22.7   20.5   22.7   20.5   25  
#>  8 Argentina        NA       50.4   49.9   49.3   48.7   48.2
#>  9 Armenia          NA       NA     NA     NA     NA     NA  
#> 10 Aruba            NA       11.1   11.1   11.1   11.1   11.1
#> # … with 203 more rows, and 46 more variables: `1966` <dbl>,
#> #   `1967` <dbl>, `1968` <dbl>, `1969` <dbl>, `1970` <dbl>,
#> #   `1971` <dbl>, `1972` <dbl>, `1973` <dbl>, `1974` <dbl>,
#> #   `1975` <dbl>, `1976` <dbl>, `1977` <dbl>, `1978` <dbl>,
#> #   `1979` <dbl>, `1980` <dbl>, `1981` <dbl>, `1982` <dbl>,
#> #   `1983` <dbl>, `1984` <dbl>, `1985` <dbl>, `1986` <dbl>,
#> #   `1987` <dbl>, `1988` <dbl>, `1989` <dbl>, `1990` <dbl>,
#> #   `1991` <dbl>, `1992` <dbl>, `1993` <dbl>, `1994` <dbl>,
#> #   `1995` <dbl>, `1996` <dbl>, `1997` <dbl>, `1998` <dbl>,
…
