…
Each row is now one observation. The indicator column is named after the
file, which matches the Gapminder convention of naming files after their
indicator.

[`tidy_index()`](https://ebedthan.github.io/tidygapminder/reference/tidy_index.md)
also handles `.xlsx` files identically:

``` r

xlsx_path <- system.file("extdata/agriculture_land.xlsx",
                          package = "tidygapminder")

tidy_index(xlsx_path)
#> # A tibble: 11,076 × 3
#>    country              year `Agricultural land (% of land area)`
#>    <chr>               <dbl>                                <dbl>
#>  1 Afghanistan          1960                                   NA
#>  2 Albania              1960                                   NA
#>  3 Algeria              1960                                   NA
#>  4 American Samoa       1960                                   NA
#>  5 Andorra              1960                                   NA
#>  6 Angola               1960                                   NA
#>  7 Antigua and Barbuda  1960                                   NA
#>  8 Argentina            1960                                   NA
#>  9 Armenia              1960                                   NA
#> 10 Aruba                1960                                   NA
#> # ℹ 11,066 more rows
```
…
